Mini Project 03 — Visualizing and Maintaining the Green Canopy of NYC – STA 9750 Submission Material
…
Show R Code

tree_sf <- download_tree_points()

tree_sf

Simple feature collection with 100000 features and 13 fields
Geometry type: POINT
Dimension:     XY
Bounding box:  xmin: -74.25448 ymin: 40.49881 xmax: -73.70015 ymax: 40.91419
Geodetic CRS:  WGS 84
# A tibble: 100,000 × 14
   tpcondition stumpdiameter riskratingdate      riskrating objectid globalid   
 * <chr>       <chr>         <dttm>              <chr>      <chr>    <chr>      
 1 Excellent   <NA>          NA                  <NA>       86823    2B457A4C-E…
 2 Good        <NA>          NA                  <NA>       87623    37195E1A-A…
 3 Poor        <NA>          NA                  <NA>       88023    6BA8E72B-1…
 4 Fair        <NA>          2024-06-28 12:41:55 6          88823    79A5DBAF-F…
 5 Dead        <NA>          NA                  <NA>       88824    182F6647-D…
 6 Fair        <NA>          NA                  <NA>       88825    394AEC59-B…
 7 Critical    <NA>          NA                  <NA>       89223    8717EC83-F…
 8 Dead        <NA>          NA                  <NA>       89225    FD617E56-1…
 9 Unknown     <NA>          NA                  <NA>       89625    380AB840-F…
10 Fair        <NA>          NA                  <NA>       89626    8A487A6B-1…
# ℹ 99,990 more rows
# ℹ 8 more variables: tpstructure <chr>, plantingspaceglobalid <chr>,
#   createddate <dttm>, dbh <chr>, planteddate <dttm>, updateddate <dttm>,
#   genusspecies <chr>, geometry <POINT [°]>
…
Tree Points — Basic Check

Show R Code

print(tree_sf)

Simple feature collection with 100000 features and 13 fields
Geometry type: POINT
Dimension:     XY
Bounding box:  xmin: -74.25448 ymin: 40.49881 xmax: -73.70015 ymax: 40.91419
Geodetic CRS:  WGS 84
# A tibble: 100,000 × 14
   tpcondition stumpdiameter riskratingdate      riskrating objectid globalid   
 * <chr>       <chr>         <dttm>              <chr>      <chr>    <chr>      
 1 Excellent   <NA>          NA                  <NA>       86823    2B457A4C-E…
 2 Good        <NA>          NA                  <NA>       87623    37195E1A-A…
 3 Poor        <NA>          NA                  <NA>       88023    6BA8E72B-1…
 4 Fair        <NA>          2024-06-28 12:41:55 6          88823    79A5DBAF-F…
 5 Dead        <NA>          NA                  <NA>       88824    182F6647-D…
 6 Fair        <NA>          NA                  <NA>       88825    394AEC59-B…
 7 Critical    <NA>          NA                  <NA>       89223    8717EC83-F…
 8 Dead        <NA>          NA                  <NA>       89225    FD617E56-1…
 9 Unknown     <NA>          NA                  <NA>       89625    380AB840-F…
10 Fair        <NA>          NA                  <NA>       89626    8A487A6B-1…
# ℹ 99,990 more rows
# ℹ 8 more variables: tpstructure <chr>, plantingspaceglobalid <chr>,
#   createddate <dttm>, dbh <chr>, planteddate <dttm>, updateddate <dttm>,
#   genusspecies <chr>, geometry <POINT [°]>
…
